{
  "data":{
    "isMore":1,
    "items":[
      {
        "brandId":16,
        "brandName":"苹果",
        "buyInstructions":"测试测试",
        "createTime":1530331071000,
        "goodsDetails":"group100/M00/00/00/rBAKo1s2_xqAWgbDAAB2jFNOuYo357.jpg",
        "goodsService":{
          "goodsType":"冒号",
          "id":14,
          "installService":1,
          "isDelete":0,
          "measureService":1,
          "sendService":1,
          "updateTime":1530170260000
        },
        "id":1012908041904537600,
        "isDelete":0,
        "leafClassId":210,
        "leafClassName":"威图手机",
        "model":"8",
        "number":"1",
        "otherName":"",
        "pics":[
          {
            "goodsSkuId":1012908041904537600,
            "pic":"http://172.16.10.117group100/M00/0000/rBAKols2_xSAPW_yAABqdU6Ofcw220.png"
          }
        ],
        "preState":1,
        "price":10,
        "priceNew":0,
        "publishers":[

        ],
        "serviceCity":"",
        "showName":"",
        "spuId":55,
        "state":2,
        "sysName":"苹果 8 威图手机 12 12 12 12",
        "userId":4
      },
      {
        "brandId":21,
        "brandName":"北斗",
        "buyInstructions":"542粉色的方式",
        "createTime":1530331134000,
        "draftNumber":"1012908306300878848",
        "goodsDetails":"group100/M00/00/00/rBAKpFs2_juAWf2fAAKDnWQyPw8070.jpg",
        "goodsService":{
          "goodsType":"冒号",
          "id":14,
          "installService":1,
          "isDelete":0,
          "measureService":1,
          "sendService":1,
          "updateTime":1530170260000
        },
        "id":1012908306544148480,
        "isDelete":0,
        "leafClassId":210,
        "leafClassName":"威图手机",
        "model":"bd1000",
        "number":"2",
        "otherName":"",
        "pics":[
          {
            "goodsSkuId":1012908306544148480,
            "pic":"http://172.16.10.117group100/M00/0000/rBAKo1s2_jWAM9QUAAAJ5zfo39g406.png"
          }
        ],
        "price":10,
        "priceNew":0,
        "publishers":[

        ],
        "serviceCity":"",
        "spuId":47,
        "state":2,
        "sysName":"北斗 bd1000 威图手机 12 32 12 32",
        "userId":4
      },
      {
        "brandId":21,
        "brandName":"北斗",
        "buyInstructions":"34432额外任务",
        "createTime":1530331212000,
        "draftNumber":"1012908633095880704",
        "goodsDetails":"group100/M00/00/00/rBAKols3AESAWHUSAAKDnWQyPw8605.jpg",
        "goodsService":{
          "goodsType":"冒号",
          "id":14,
          "installService":1,
          "isDelete":0,
          "measureService":1,
          "sendService":1,
          "updateTime":1530170260000
        },
        "id":1012908633318178816,
        "isDelete":0,
        "leafClassId":210,
        "leafClassName":"威图手机",
        "model":"bd1000",
        "number":"3",
        "otherName":"",
        "pics":[
          {
            "goodsSkuId":1012908633318178816,
            "pic":"http://172.16.10.117group100/M00/0000/rBAKpFs3AD-APIX8AAAJ5zfo39g652.png"
          }
        ],
        "price":10,
        "publishers":[

        ],
        "serviceCity":"",
        "spuId":47,
        "state":2,
        "sysName":"北斗 bd1000 威图手机 21 21 1 2",
        "userId":4
      },
      {
        "brandId":16,
        "brandName":"苹果",
        "buyInstructions":"测试测试测试测试",
        "createTime":1530339292000,
        "goodsDetails":"group100/M00/00/00/rBAKo1s3H7uAZZqBAAA_JUamJzk463.jpg",
        "goodsService":{
          "goodsType":"冒号",
          "id":14,
          "installService":1,
          "isDelete":0,
          "measureService":1,
          "sendService":1,
          "updateTime":1530170260000
        },
        "id":1012942525699629056,
        "isDelete":0,
        "leafClassId":210,
        "leafClassName":"威图手机",
        "model":"8",
        "number":"4",
        "otherName":"",
        "pics":[
          {
            "goodsSkuId":1012942525699629056,
            "pic":"http://172.16.10.117group100/M00/0000/rBAKols3H7CABP7FAAA_JUamJzk418.jpg"
          }
        ],
        "preState":1,
        "price":10,
        "publishers":[

        ],
        "serviceCity":"",
        "showName":"",
        "spuId":55,
        "state":2,
        "sysName":"苹果 8 威图手机 10 10 100 10",
        "userId":4
      },
      {
        "brandId":16,
        "brandName":"苹果",
        "buyInstructions":"测试测试测试测试",
        "createTime":1530339292000,
        "goodsDetails":"group100/M00/00/00/rBAKo1s3H7uAZZqBAAA_JUamJzk463.jpg",
        "goodsService":{
          "goodsType":"冒号",
          "id":14,
          "installService":1,
          "isDelete":0,
          "measureService":1,
          "sendService":1,
          "updateTime":1530170260000
        },
        "id":1012942525728989185,
        "isDelete":0,
        "leafClassId":210,
        "leafClassName":"威图手机",
        "model":"8",
        "number":"5",
        "otherName":"",
        "pics":[
          {
            "goodsSkuId":1012942525728989185,
            "pic":"http://172.16.10.117group100/M00/0000/rBAKols3H7CABP7FAAA_JUamJzk418.jpg"
          }
        ],
        "price":10,
        "publishers":[

        ],
        "serviceCity":"",
        "showName":"",
        "spuId":55,
        "state":2,
        "sysName":"苹果 8 威图手机 10 100 10",
        "userId":4
      },
      {
        "brandId":16,
        "brandName":"苹果",
        "buyInstructions":"测试测试测试测试",
        "createTime":1530339292000,
        "goodsDetails":"group100/M00/00/00/rBAKo1s3H7uAZZqBAAA_JUamJzk463.jpg",
        "goodsService":{
          "goodsType":"冒号",
          "id":14,
          "installService":1,
          "isDelete":0,
          "measureService":1,
          "sendService":1,
          "updateTime":1530170260000
        },
        "id":1012942525728989187,
        "isDelete":0,
        "leafClassId":210,
        "leafClassName":"威图手机",
        "model":"8",
        "number":"6",
        "otherName":"",
        "pics":[
          {
            "goodsSkuId":1012942525728989187,
            "pic":"http://172.16.10.117group100/M00/0000/rBAKols3H7CABP7FAAA_JUamJzk418.jpg"
          }
        ],
        "preState":1,
        "price":10,
        "publishers":[

        ],
        "serviceCity":"",
        "showName":"",
        "spuId":55,
        "state":2,
        "sysName":"苹果 8 威图手机 20 10 100 10",
        "userId":4
      },
      {
        "brandId":16,
        "brandName":"苹果",
        "buyInstructions":"测试测试测试测试",
        "createTime":1530339292000,
        "goodsDetails":"group100/M00/00/00/rBAKo1s3H7uAZZqBAAA_JUamJzk463.jpg",
        "goodsService":{
          "goodsType":"冒号",
          "id":14,
          "installService":1,
          "isDelete":0,
          "measureService":1,
          "sendService":1,
          "updateTime":1530170260000
        },
        "id":1012942525728989189,
        "isDelete":0,
        "leafClassId":210,
        "leafClassName":"威图手机",
        "model":"8",
        "number":"7",
        "otherName":"",
        "pics":[
          {
            "goodsSkuId":1012942525728989189,
            "pic":"http://172.16.10.117group100/M00/0000/rBAKols3H7CABP7FAAA_JUamJzk418.jpg"
          }
        ],
        "price":10,
        "publishers":[

        ],
        "serviceCity":"",
        "showName":"",
        "spuId":55,
        "state":2,
        "sysName":"苹果 8 威图手机 20 100 10",
        "userId":4
      },
      {
        "brandId":16,
        "brandName":"苹果",
        "buyInstructions":"测试测试",
        "createTime":1530339444000,
        "goodsDetails":"group100/M00/00/00/rBAKols3IGSAUgVTAAA_JUamJzk819.jpg",
        "goodsService":{
          "goodsType":"冒号",
          "id":14,
          "installService":1,
          "isDelete":0,
          "measureService":1,
          "sendService":1,
          "updateTime":1530170260000
        },
        "id":1012943161279291392,
        "isDelete":0,
        "leafClassId":210,
        "leafClassName":"威图手机",
        "model":"8",
        "number":"8",
        "otherName":"",
        "pics":[
          {
            "goodsSkuId":1012943161279291392,
            "pic":"http://172.16.10.117group100/M00/0000/rBAKpFs3IFuAdr2VAAA_JUamJzk295.jpg"
          }
        ],
        "preState":1,
        "price":10,
        "publishers":[

        ],
        "serviceCity":"",
        "showName":"",
        "spuId":55,
        "state":2,
        "sysName":"苹果 8 威图手机 1 3 12 12",
        "userId":4
      },
      {
        "brandId":16,
        "brandName":"苹果",
        "buyInstructions":"测试测试",
        "createTime":1530339444000,
        "goodsDetails":"group100/M00/00/00/rBAKols3IGSAUgVTAAA_JUamJzk819.jpg",
        "goodsService":{
          "goodsType":"冒号",
          "id":14,
          "installService":1,
          "isDelete":0,
          "measureService":1,
          "sendService":1,
          "updateTime":1530170260000
        },
        "id":1012943161283485697,
        "isDelete":0,
        "leafClassId":210,
        "leafClassName":"威图手机",
        "model":"8",
        "number":"9",
        "otherName":"",
        "pics":[
          {
            "goodsSkuId":1012943161283485697,
            "pic":"http://172.16.10.117group100/M00/0000/rBAKpFs3IFuAdr2VAAA_JUamJzk295.jpg"
          }
        ],
        "preState":2,
        "price":10,
        "publishers":[

        ],
        "serviceCity":"",
        "showName":"",
        "spuId":55,
        "state":2,
        "sysName":"苹果 8 威图手机 1 4 12 12",
        "userId":4
      },
      {
        "brandId":16,
        "brandName":"苹果",
        "buyInstructions":"测试测试",
        "createTime":1530339444000,
        "goodsDetails":"group100/M00/00/00/rBAKols3IGSAUgVTAAA_JUamJzk819.jpg",
        "goodsService":{
          "goodsType":"冒号",
          "id":14,
          "installService":1,
          "isDelete":0,
          "measureService":1,
          "sendService":1,
          "updateTime":1530170260000
        },
        "id":1012943161283485699,
        "isDelete":0,
        "leafClassId":210,
        "leafClassName":"威图手机",
        "model":"8",
        "number":"10",
        "otherName":"",
        "pics":[
          {
            "goodsSkuId":1012943161283485699,
            "pic":"http://172.16.10.117group100/M00/0000/rBAKpFs3IFuAdr2VAAA_JUamJzk295.jpg"
          }
        ],
        "preState":1,
        "price":10,
        "publishers":[

        ],
        "serviceCity":"",
        "showName":"",
        "spuId":55,
        "state":2,
        "sysName":"苹果 8 威图手机 2 3 12 12",
        "userId":4
      }
    ],
    "pageNum":1,
    "pageSize":10,
    "startIndex":0,
    "totalCount":31,
    "totalPage":4
  },
  "errorCode":0,
  "message":"成功",
  "success":true
}