{
  "success":true,
  "errorCode":0,
  "message":"成功",
  "data":{
    "pageSize":5,
    "totalCount":11,
    "isMore":1,
    "totalPage":3,
    "startIndex":5,
    "items":[
      {
        "id":14,
        "necessary":0,
        "name":"厚度11",
        "unit":"cm",
        "type":0,
        "updateTime":1527082189000,
        "state":0,
        "isDelete":0
      },
      {
        "id":15,
        "necessary":0,
        "name":"厚度11",
        "unit":"cm",
        "type":0,
        "updateTime":1527082189000,
        "state":0,
        "isDelete":0
      },
      {
        "id":22,
        "necessary":0,
        "name":"厚度",
        "unit":"cm",
        "type":0,
        "updateTime":1527148349000,
        "state":0,
        "isDelete":0
      },
      {
        "id":23,
        "necessary":0,
        "name":"厚度",
        "unit":"cm",
        "type":0,
        "updateTime":1527148354000,
        "state":0,
        "isDelete":0
      },
      {
        "id":25,
        "necessary":0,
        "name":"毛重1",
        "unit":"cm",
        "type":0,
        "updateTime":1527149882000,
        "state":0,
        "isDelete":0
      }
    ],
    "currentPage":2
  }
}